[
  {
    "decision": "ACCEPT",
    "ecCreditReply_amount": "11.10",
    "ecCreditReply_processorTransactionID": "349600226819",
    "ecCreditReply_reasonCode": "100",
    "ecCreditReply_reconciliationID": "02WWNSSGIMO1L2Q6",
    "ecCreditReply_requestDateTime": "2016-04-12T20:05:38Z",
    "ecCreditReply_settlementMethod": "B",
    "ecCreditReply_verificationCode": "00",
    "ecCreditReply_verificationCodeRaw": "4",
    "merchantReferenceCode": "r-1",
    "purchaseTotals_currency": "USD",
    "reasonCode": "100",
    "requestID": "4604939985066692301136",
    "requestToken": "Ahjr7wSR80TCjM0Jm6KgXp6LLmDwGnosuYPAekC4rL68MmkmW6QHfyDAVSPmiYUZmhM3RUAANTyQ"
  },
  {
    "name": "Transaction Detail",
    "version": "1.7",
    "merchantId": "wfgfundreit",
    "startDate": "2016-04-13T21:19:26.798-0400",
    "endDate": "2016-04-13T21:19:26.798-0400",
    "requests": {
      "requests": [
        {
          "requestId": "4604939985066692301136",
          "merchantReferenceNumber": "r-1",
          "requestDate": "2016-04-12T17:46:38.000-0400",
          "source": "Simple Order API",
          "transactionReferenceNumber": "02WWNSSGIMO1L2Q6",
          "paymentMethod": {
            "check": {
              "accountSuffix": "4946"
            }
          },
          "applicationReplies": {
            "applicationReplies": [
              {
                "name": "ics_ecp_credit",
                "code": 1,
                "flag": "SOK",
                "message": "Request was processed successfully."
              }
            ]
          },
          "paymentData": {
            "requestId": "4604939985066692301136",
            "paymentProcessor": "wellsfargoach",
            "eventType": "REFUND",
            "amount": 11.10,
            "totalTaxAmount": 0.00,
            "currencyCode": "USD",
            "requestedAmountCurrencyCode": "USD",
            "achVerificationResult": "4",
            "achVerificationResultMapped": "00"
          }
        }
      ]
    }
  },
  {
    "name": "Transaction Detail",
    "version": "1.7",
    "merchantId": "wfgfundreit",
    "startDate": "2016-04-14T21:18:52.116-0400",
    "endDate": "2016-04-14T21:18:52.116-0400",
    "requests": {
      "requests": [
        {
          "requestId": "4604939985066692301136",
          "merchantReferenceNumber": "r-1",
          "requestDate": "2016-04-12T17:46:38.000-0400",
          "source": "Simple Order API",
          "transactionReferenceNumber": "02WWNSSGIMO1L2Q6",
          "paymentMethod": {
            "check": {
              "accountSuffix": "4946"
            }
          },
          "applicationReplies": {
            "applicationReplies": [
              {
                "name": "ics_ecp_credit",
                "code": 1,
                "flag": "SOK",
                "message": "Request was processed successfully."
              }
            ]
          },
          "paymentData": {
            "requestId": "4604939985066692301136",
            "paymentProcessor": "wellsfargoach",
            "eventType": "Declined",
            "amount": 11.10,
            "totalTaxAmount": 0.00,
            "currencyCode": "USD",
            "requestedAmountCurrencyCode": "USD",
            "achVerificationResult": "4",
            "achVerificationResultMapped": "00"
          }
        }
      ]
    }
  },
  {
    "decision": "ACCEPT",
    "ecCreditReply_amount": "11.10",
    "ecCreditReply_processorTransactionID": "349600226819",
    "ecCreditReply_reasonCode": "100",
    "ecCreditReply_reconciliationID": "02WWNSSGIMO1L2Q6",
    "ecCreditReply_requestDateTime": "2016-04-12T20:46:38Z",
    "ecCreditReply_settlementMethod": "B",
    "ecCreditReply_verificationCode": "00",
    "ecCreditReply_verificationCodeRaw": "4",
    "merchantReferenceCode": "r-1",
    "purchaseTotals_currency": "USD",
    "reasonCode": "100",
    "requestID": "12345",
    "requestToken": "Ahjr7wSR80TCjM0Jm6KgXp6LLmDwGnosuYPAekC4rL68MmkmW6QHfyDAVSPmiYUZmhM3RUAANTyQ"
  },
  {
    "name": "Transaction Detail",
    "version": "1.7",
    "merchantId": "wfgfundreit",
    "startDate": "2016-04-13T21:19:26.798-0400",
    "endDate": "2016-04-13T21:19:26.798-0400",
    "requests": {
      "requests": [
        {
          "requestId": "12345",
          "merchantReferenceNumber": "r-1",
          "requestDate": "2016-04-12T17:46:38.000-0400",
          "source": "Simple Order API",
          "transactionReferenceNumber": "02WWNSSGIMO1L2Q6",
          "paymentMethod": {
            "check": {
              "accountSuffix": "4946"
            }
          },
          "applicationReplies": {
            "applicationReplies": [
              {
                "name": "ics_ecp_credit",
                "code": 1,
                "flag": "SOK",
                "message": "Request was processed successfully."
              
}            ]
          },
          "paymentData": {
            "requestId": "12345",
            "paymentProcessor": "wellsfargoach",
            "eventType": "REFUND",
            "amount": 11.10,
            "totalTaxAmount": 0.00,
            "currencyCode": "USD",
            "requestedAmountCurrencyCode": "USD",
            "achVerificationResult": "4",
            "achVerificationResultMapped": "00"
          }
        }
      ]
    }
  },
  {
    "name": "Transaction Detail",
    "version": "1.7",
    "merchantId": "wfgfundreit",
    "startDate": "2016-04-14T21:18:52.116-0400",
    "endDate": "2016-04-14T21:18:52.116-0400",
    "requests": {
      "requests": [
        {
          "requestId": "12345",
          "merchantReferenceNumber": "r-1",
          "requestDate": "2016-04-12T17:46:38.000-0400",
          "source": "Simple Order API",
          "transactionReferenceNumber": "02WWNSSGIMO1L2Q6",
          "paymentMethod": {
            "check": {
              "accountSuffix": "4946"
            }
          },
          "applicationReplies": {
            "applicationReplies": [
              {
                "name": "ics_ecp_credit",
                "code": 1,
                "flag": "SOK",
                "message": "Request was processed successfully."
              }
            ]
          },
          "paymentData": {
            "requestId": "12345",
            "paymentProcessor": "wellsfargoach",
            "eventType": "Declined",
            "amount": 11.10,
            "totalTaxAmount": 0.00,
            "currencyCode": "USD",
            "requestedAmountCurrencyCode": "USD",
            "achVerificationResult": "4",
            "achVerificationResultMapped": "00"
          }
        }
      ]
    }
  },
  {
    "name": "Transaction Detail",
    "version": "1.7",
    "merchantId": "wfgfundreit",
    "startDate": "2016-04-15T21:19:26.798-0400",
    "endDate": "2016-04-15T21:19:26.798-0400",
    "requests": {
      "requests": [
        {
          "requestId": "12345",
          "merchantReferenceNumber": "r-1",
          "requestDate": "2016-04-12T17:46:38.000-0400",
          "source": "Simple Order API",
          "transactionReferenceNumber": "02WWNSSGIMO1L2Q6",
          "paymentMethod": {
            "check": {
              "accountSuffix": "4946"
            }
          },
          "applicationReplies": {
            "applicationReplies": [
              {
                "name": "ics_ecp_credit",
                "code": 1,
                "flag": "SOK",
                "message": "Request was processed successfully."

              }            ]
          },
          "paymentData": {
            "requestId": "12345",
            "paymentProcessor": "wellsfargoach",
            "eventType": "Stop Payment",
            "amount": 11.10,
            "totalTaxAmount": 0.00,
            "currencyCode": "USD",
            "requestedAmountCurrencyCode": "USD",
            "achVerificationResult": "4",
            "achVerificationResultMapped": "00"
          }
        }
      ]
    }
  }
]
