[
  {
    "decision": "ACCEPT",
    "ecDebitReply_amount": "10.00",
    "ecDebitReply_processorTransactionID": "361605453216",
    "ecDebitReply_reasonCode": "100",
    "ecDebitReply_reconciliationID": "02WWNT6GIMYP7JLK",
    "ecDebitReply_requestDateTime": "2016-04-13T14:21:38Z",
    "ecDebitReply_settlementMethod": "B",
    "ecDebitReply_verificationCode": "00",
    "ecDebitReply_verificationCodeRaw": "1",
    "ecDebitReply_verificationLevel": "1",
    "merchantReferenceCode": "r-1",
    "purchaseTotals_currency": "USD",
    "reasonCode": "100",
    "requestID": "4605572985706187401115",
    "requestToken": "Ahjr7wSR81ZUSkGxAk82Xp6hiuqtAnqGK6q0GkCvoX2IZNJMt0gO/kGAekfNWVEpBsQJPNgAwRPG"
  },
  {
    "name": "Transaction Detail",
    "version": "1.7",
    "merchantId": "wfgfundreit",
    "startDate": "2016-04-13T21:10:19.254-0400",
    "endDate": "2016-04-13T21:10:19.254-0400",
    "requests": {
      "requests": [
        {
          "requestId": "4605572985706187401115",
          "merchantReferenceNumber": "r-1",
          "requestDate": "2016-04-13T11:21:38.000-0400",
          "source": "Simple Order API",
          "transactionReferenceNumber": "02WWNT6GIMYP7JLK",
          "paymentMethod": {
            "check": {
              "accountSuffix": "2821"
            }
          },
          "applicationReplies": {
            "applicationReplies": [
              {
                "name": "ics_ecp_debit",
                "code": 1,
                "flag": "SOK",
                "message": "Request was processed successfully."
              }
            ]
          },
          "paymentData": {
            "requestId": "4605572985706187401115",
            "paymentProcessor": "wellsfargoach",
            "eventType": "PENDING",
            "amount": 10.00,
            "totalTaxAmount": 0.00,
            "currencyCode": "USD",
            "requestedAmountCurrencyCode": "USD",
            "achVerificationResult": "1",
            "achVerificationResultMapped": "00"
          }
        }
      ]
    }
  },
  {
    "name": "Transaction Detail",
    "version": "1.7",
    "merchantId": "wfgfundreit",
    "startDate": "2016-04-14T21:09:40.639-0400",
    "endDate": "2016-04-14T21:09:40.639-0400",
    "requests": {
      "requests": [
        {
          "requestId": "4605572985706187401115",
          "merchantReferenceNumber": "r-1",
          "requestDate": "2016-04-13T11:21:38.000-0400",
          "source": "Simple Order API",
          "transactionReferenceNumber": "02WWNT6GIMYP7JLK",
          "paymentMethod": {
            "check": {
              "accountSuffix": "2821"
            }
          },
          "applicationReplies": {
            "applicationReplies": [
              {
                "name": "ics_ecp_debit",
                "code": 1,
                "flag": "SOK",
                "message": "Request was processed successfully."
              }
            ]
          },
          "paymentData": {
            "requestId": "4605572985706187401115",
            "paymentProcessor": "wellsfargoach",
            "eventType": "Payment",
            "amount": 10.00,
            "totalTaxAmount": 0.00,
            "currencyCode": "USD",
            "requestedAmountCurrencyCode": "USD",
            "achVerificationResult": "1",
            "achVerificationResultMapped": "00"
          }
        }
      ]
    }
  },
  {
    "name": "Transaction Detail",
    "version": "1.7",
    "merchantId": "wfgfundreit",
    "startDate": "2016-04-15T22:34:06.297-0400",
    "endDate": "2016-04-15T22:34:06.297-0400",
    "requests": {
      "requests": [
        {
          "requestId": "4605572985706187401115",
          "merchantReferenceNumber": "r-1",
          "requestDate": "2016-04-13T11:21:38.000-0400",
          "source": "Simple Order API",
          "transactionReferenceNumber": "02WWNT6GIMYP7JLK",
          "paymentMethod": {
            "check": {
              "accountSuffix": "2821"
            }
          },
          "applicationReplies": {
            "applicationReplies": [
              {
                "name": "ics_ecp_debit",
                "code": 1,
                "flag": "SOK",
                "message": "Request was processed successfully."
              }
            ]
          },
          "paymentData": {
            "requestId": "4605572985706187401115",
            "paymentProcessor": "wellsfargoach",
            "eventType": "Payment",
            "amount": 10.00,
            "totalTaxAmount": 0.00,
            "currencyCode": "USD",
            "requestedAmountCurrencyCode": "USD",
            "achVerificationResult": "1",
            "achVerificationResultMapped": "00"
          }
        }
      ]
    }
  },
  {
    "name": "Transaction Detail",
    "version": "1.7",
    "merchantId": "wfgfundreit",
    "startDate": "2016-04-16T22:23:26.479-0400",
    "endDate": "2016-04-16T22:23:26.479-0400",
    "requests": {
      "requests": [
        {
          "requestId": "4605572985706187401115",
          "merchantReferenceNumber": "r-1",
          "requestDate": "2016-04-13T11:21:38.000-0400",
          "source": "Simple Order API",
          "transactionReferenceNumber": "02WWNT6GIMYP7JLK",
          "paymentMethod": {
            "check": {
              "accountSuffix": "2821"
            }
          },
          "applicationReplies": {
            "applicationReplies": [
              {
                "name": "ics_ecp_debit",
                "code": 1,
                "flag": "SOK",
                "message": "Request was processed successfully."
              }
            ]
          },
          "paymentData": {
            "requestId": "4605572985706187401115",
            "paymentProcessor": "wellsfargoach",
            "eventType": "Payment",
            "amount": 10.00,
            "totalTaxAmount": 0.00,
            "currencyCode": "USD",
            "requestedAmountCurrencyCode": "USD",
            "achVerificationResult": "1",
            "achVerificationResultMapped": "00"
          }
        }
      ]
    }
  },
  {
    "name": "Transaction Detail",
    "version": "1.7",
    "merchantId": "wfgfundreit",
    "startDate": "2016-04-17T22:15:37.035-0400",
    "endDate": "2016-04-17T22:15:37.035-0400",
    "requests": {
      "requests": [
        {
          "requestId": "4605572985706187401115",
          "merchantReferenceNumber": "r-1",
          "requestDate": "2016-04-13T11:21:38.000-0400",
          "source": "Simple Order API",
          "transactionReferenceNumber": "02WWNT6GIMYP7JLK",
          "paymentMethod": {
            "check": {
              "accountSuffix": "2821"
            }
          },
          "applicationReplies": {
            "applicationReplies": [
              {
                "name": "ics_ecp_debit",
                "code": 1,
                "flag": "SOK",
                "message": "Request was processed successfully."
              }
            ]
          },
          "paymentData": {
            "requestId": "4605572985706187401115",
            "paymentProcessor": "wellsfargoach",
            "eventType": "Payment",
            "amount": 10.00,
            "totalTaxAmount": 0.00,
            "currencyCode": "USD",
            "requestedAmountCurrencyCode": "USD",
            "achVerificationResult": "1",
            "achVerificationResultMapped": "00"
          }
        }
      ]
    }
  },
  {
    "name": "Transaction Detail",
    "version": "1.7",
    "merchantId": "wfgfundreit",
    "startDate": "2016-04-18T21:04:30.243-0400",
    "endDate": "2016-04-18T21:04:30.243-0400",
    "requests": {
      "requests": [
        {
          "requestId": "4605572985706187401115",
          "merchantReferenceNumber": "r-1",
          "requestDate": "2016-04-13T11:21:38.000-0400",
          "source": "Simple Order API",
          "transactionReferenceNumber": "02WWNT6GIMYP7JLK",
          "paymentMethod": {
            "check": {
              "accountSuffix": "2821"
            }
          },
          "applicationReplies": {
            "applicationReplies": [
              {
                "name": "ics_ecp_debit",
                "code": 1,
                "flag": "SOK",
                "message": "Request was processed successfully."
              }
            ]
          },
          "paymentData": {
            "requestId": "4605572985706187401115",
            "paymentProcessor": "wellsfargoach",
            "eventType": "Payment",
            "amount": 10.00,
            "totalTaxAmount": 0.00,
            "currencyCode": "USD",
            "requestedAmountCurrencyCode": "USD",
            "achVerificationResult": "1",
            "achVerificationResultMapped": "00"
          }
        }
      ]
    }
  },
  {
    "name": "Transaction Detail",
    "version": "1.7",
    "merchantId": "wfgfundreit",
    "startDate": "2016-04-19T21:03:48.338-0400",
    "endDate": "2016-04-19T21:03:48.338-0400",
    "requests": {
      "requests": [
        {
          "requestId": "4605572985706187401115",
          "merchantReferenceNumber": "r-1",
          "requestDate": "2016-04-13T11:21:38.000-0400",
          "source": "Simple Order API",
          "transactionReferenceNumber": "02WWNT6GIMYP7JLK",
          "paymentMethod": {
            "check": {
              "accountSuffix": "2821"
            }
          },
          "applicationReplies": {
            "applicationReplies": [
              {
                "name": "ics_ecp_debit",
                "code": 1,
                "flag": "SOK",
                "message": "Request was processed successfully."
              }
            ]
          },
          "paymentData": {
            "requestId": "4605572985706187401115",
            "paymentProcessor": "wellsfargoach",
            "eventType": "Payment",
            "amount": 10.00,
            "totalTaxAmount": 0.00,
            "currencyCode": "USD",
            "requestedAmountCurrencyCode": "USD",
            "achVerificationResult": "1",
            "achVerificationResultMapped": "00"
          }
        }
      ]
    }
  },
  {
    "name": "Transaction Detail",
    "version": "1.7",
    "merchantId": "wfgfundreit",
    "startDate": "2016-04-20T21:30:56.588-0400",
    "endDate": "2016-04-20T21:30:56.588-0400",
    "requests": {
      "requests": [
        {
          "requestId": "4605572985706187401115",
          "merchantReferenceNumber": "r-1",
          "requestDate": "2016-04-13T11:21:38.000-0400",
          "source": "Simple Order API",
          "transactionReferenceNumber": "02WWNT6GIMYP7JLK",
          "paymentMethod": {
            "check": {
              "accountSuffix": "2821"
            }
          },
          "applicationReplies": {
            "applicationReplies": [
              {
                "name": "ics_ecp_debit",
                "code": 1,
                "flag": "SOK",
                "message": "Request was processed successfully."
              }
            ]
          },
          "paymentData": {
            "requestId": "4605572985706187401115",
            "paymentProcessor": "wellsfargoach",
            "eventType": "Completed",
            "amount": 10.00,
            "totalTaxAmount": 0.00,
            "currencyCode": "USD",
            "requestedAmountCurrencyCode": "USD",
            "achVerificationResult": "1",
            "achVerificationResultMapped": "00"
          }
        }
      ]
    }
  }
]
