[
  {
    "decision": "ACCEPT",
    "ecDebitReply_amount": "5000.00",
    "ecDebitReply_processorTransactionID": "578875414065",
    "ecDebitReply_reasonCode": "100",
    "ecDebitReply_reconciliationID": "02XEKEHGIZ9DCH7S",
    "ecDebitReply_requestDateTime": "2017-02-27T15:32:15Z",
    "ecDebitReply_settlementMethod": "B",
    "ecDebitReply_verificationCode": "00",
    "ecDebitReply_verificationCodeRaw": "1",
    "ecDebitReply_verificationLevel": "1",
    "merchantReferenceCode": "dummy-merch-ref-code-1",
    "purchaseTotals_currency": "USD",
    "reasonCode": "100",
    "requestID": "4882095345876293204280",
    "requestToken": "Ahjr7wSTCKiu6p/wSTh1L1ENj1PG4KIbHqeNw0gn6EgbkoZNJMvRit9PyAnkwioruqf8Ek4dQAAAOxJ6"
  },
  {
    "name": "Transaction Detail",
    "version": "1.7",
    "merchantId": "wfgfundeastcoastreit",
    "startDate": "2017-02-27T21:02:30.486-0500",
    "endDate": "2017-02-27T21:02:30.486-0500",
    "requests": {
      "requests": [
        {
          "requestId": "4882095345876293204280",
          "merchantReferenceNumber": "dummy-merch-ref-code-1",
          "requestDate": "2017-02-27T10:32:14.000-0500",
          "source": "Simple Order API",
          "transactionReferenceNumber": "02XEKEHGIZ9DCH7S",
          "paymentMethod": {
            "check": {
              "accountSuffix": "9181"
            }
          },
          "applicationReplies": {
            "applicationReplies": [
              {
                "name": "ics_ecp_debit",
                "code": 1,
                "flag": "SOK",
                "message": "Request was processed successfully."
              }
            ]
          },
          "paymentData": {
            "requestId": "4882095345876293204280",
            "paymentProcessor": "wellsfargoach",
            "eventType": "PENDING",
            "amount": 5000.00,
            "totalTaxAmount": 0.00,
            "currencyCode": "USD",
            "requestedAmountCurrencyCode": "USD",
            "achVerificationResult": "1",
            "achVerificationResultMapped": "00"
          }
        }
      ]
    }
  },
  {
    "name": "Transaction Detail",
    "version": "1.7",
    "merchantId": "wfgfundeastcoastreit",
    "startDate": "2017-02-28T23:36:47.016-0500",
    "endDate": "2017-02-28T23:36:47.016-0500",
    "requests": {
      "requests": [
        {
          "requestId": "4882095345876293204280",
          "merchantReferenceNumber": "dummy-merch-ref-code-1",
          "requestDate": "2017-02-27T10:32:14.000-0500",
          "source": "Simple Order API",
          "transactionReferenceNumber": "02XEKEHGIZ9DCH7S",
          "paymentMethod": {
            "check": {
              "accountSuffix": "9181"
            }
          },
          "applicationReplies": {
            "applicationReplies": [
              {
                "name": "ics_ecp_debit",
                "code": 1,
                "flag": "SOK",
                "message": "Request was processed successfully."
              }
            ]
          },
          "paymentData": {
            "requestId": "4882095345876293204280",
            "paymentProcessor": "wellsfargoach",
            "eventType": "Payment",
            "amount": 5000.00,
            "totalTaxAmount": 0.00,
            "currencyCode": "USD",
            "requestedAmountCurrencyCode": "USD",
            "achVerificationResult": "1",
            "achVerificationResultMapped": "00"
          }
        }
      ]
    }
  },
  {
    "name": "Transaction Detail",
    "version": "1.7",
    "merchantId": "wfgfundeastcoastreit",
    "startDate": "2017-03-01T21:01:26.026-0500",
    "endDate": "2017-03-01T21:01:26.026-0500",
    "requests": {
      "requests": [
        {
          "requestId": "4882095345876293204280",
          "merchantReferenceNumber": "dummy-merch-ref-code-1",
          "requestDate": "2017-02-27T10:32:14.000-0500",
          "source": "Simple Order API",
          "transactionReferenceNumber": "02XEKEHGIZ9DCH7S",
          "paymentMethod": {
            "check": {
              "accountSuffix": "9181"
            }
          },
          "applicationReplies": {
            "applicationReplies": [
              {
                "name": "ics_ecp_debit",
                "code": 1,
                "flag": "SOK",
                "message": "Request was processed successfully."
              }
            ]
          },
          "paymentData": {
            "requestId": "4882095345876293204280",
            "paymentProcessor": "wellsfargoach",
            "eventType": "Payment",
            "amount": 5000.00,
            "totalTaxAmount": 0.00,
            "currencyCode": "USD",
            "requestedAmountCurrencyCode": "USD",
            "achVerificationResult": "1",
            "achVerificationResultMapped": "00"
          }
        }
      ]
    }
  },
  {
    "name": "Transaction Detail",
    "version": "1.7",
    "merchantId": "wfgfundeastcoastreit",
    "startDate": "2017-03-02T21:01:46.441-0500",
    "endDate": "2017-03-02T21:01:46.441-0500",
    "requests": {
      "requests": [
        {
          "requestId": "4882095345876293204280",
          "merchantReferenceNumber": "dummy-merch-ref-code-1",
          "requestDate": "2017-02-27T10:32:14.000-0500",
          "source": "Simple Order API",
          "transactionReferenceNumber": "02XEKEHGIZ9DCH7S",
          "paymentMethod": {
            "check": {
              "accountSuffix": "9181"
            }
          },
          "applicationReplies": {
            "applicationReplies": [
              {
                "name": "ics_ecp_debit",
                "code": 1,
                "flag": "SOK",
                "message": "Request was processed successfully."
              }
            ]
          },
          "paymentData": {
            "requestId": "4882095345876293204280",
            "paymentProcessor": "wellsfargoach",
            "eventType": "Payment",
            "amount": 5000.00,
            "totalTaxAmount": 0.00,
            "currencyCode": "USD",
            "requestedAmountCurrencyCode": "USD",
            "achVerificationResult": "1",
            "achVerificationResultMapped": "00"
          }
        }
      ]
    }
  },
  {
    "name": "Transaction Detail",
    "version": "1.7",
    "merchantId": "wfgfundeastcoastreit",
    "startDate": "2017-03-03T22:02:34.206-0500",
    "endDate": "2017-03-03T22:02:34.206-0500",
    "requests": {
      "requests": [
        {
          "requestId": "4882095345876293204280",
          "merchantReferenceNumber": "dummy-merch-ref-code-1",
          "requestDate": "2017-02-27T10:32:14.000-0500",
          "source": "Simple Order API",
          "transactionReferenceNumber": "02XEKEHGIZ9DCH7S",
          "paymentMethod": {
            "check": {
              "accountSuffix": "9181"
            }
          },
          "applicationReplies": {
            "applicationReplies": [
              {
                "name": "ics_ecp_debit",
                "code": 1,
                "flag": "SOK",
                "message": "Request was processed successfully."
              }
            ]
          },
          "paymentData": {
            "requestId": "4882095345876293204280",
            "paymentProcessor": "wellsfargoach",
            "eventType": "Payment",
            "amount": 5000.00,
            "totalTaxAmount": 0.00,
            "currencyCode": "USD",
            "requestedAmountCurrencyCode": "USD",
            "achVerificationResult": "1",
            "achVerificationResultMapped": "00"
          }
        }
      ]
    }
  },
  {
    "name": "Transaction Detail",
    "version": "1.7",
    "merchantId": "wfgfundeastcoastreit",
    "startDate": "2017-03-04T22:01:24.127-0500",
    "endDate": "2017-03-04T22:01:24.127-0500",
    "requests": {
      "requests": [
        {
          "requestId": "4882095345876293204280",
          "merchantReferenceNumber": "dummy-merch-ref-code-1",
          "requestDate": "2017-02-27T10:32:14.000-0500",
          "source": "Simple Order API",
          "transactionReferenceNumber": "02XEKEHGIZ9DCH7S",
          "paymentMethod": {
            "check": {
              "accountSuffix": "9181"
            }
          },
          "applicationReplies": {
            "applicationReplies": [
              {
                "name": "ics_ecp_debit",
                "code": 1,
                "flag": "SOK",
                "message": "Request was processed successfully."
              }
            ]
          },
          "paymentData": {
            "requestId": "4882095345876293204280",
            "paymentProcessor": "wellsfargoach",
            "eventType": "Completed",
            "amount": 5000.00,
            "totalTaxAmount": 0.00,
            "currencyCode": "USD",
            "requestedAmountCurrencyCode": "USD",
            "achVerificationResult": "1",
            "achVerificationResultMapped": "00"
          }
        }
      ]
    }
  },
  {
    "decision": "ACCEPT",
    "ecCreditReply_amount": "5000.00",
    "ecCreditReply_processorTransactionID": "615877527777",
    "ecCreditReply_reasonCode": "100",
    "ecCreditReply_reconciliationID": "02XEKEHGIZ9DCH7S",
    "ecCreditReply_requestDateTime": "2017-03-07T18:53:40Z",
    "ecCreditReply_settlementMethod": "B",
    "ecCreditReply_verificationCode": "00",
    "ecCreditReply_verificationCodeRaw": "1",
    "merchantReferenceCode": "dummy-merch-ref-code-1",
    "purchaseTotals_currency": "USD",
    "reasonCode": "100",
    "requestID": "4889128197776163507777",
    "requestToken": "Ahjr7wSTCQpIoCqB/HvyL1ENj1PG4KI9lKUMr0gn6EgbmoZNJMvRit9PyAnkwioruqf8Ek4dQAAA6hDn"
  }
]