{
  "infile": {
    "chart": {
      "exporting": {
        "allowHTML": true,
        "scale": 2
      },
      "type": "column",
      "height": 320,
      "width": 640,
      "spacing": [ 0, 0, 0, 0 ],
      "style": {
        "fontFamily": "'Source Sans Pro','Helvetica Neue','Helvetica','Arial',sans-serif"
      }
    },
    "credits": {
      "enabled": false
    },
    "lang": {
      "thousandsSep": ","
    },
    "legend": {
      "enabled": false
    },
    "title": {
      "text": null
    },
    "xAxis": {
      "labels": {
        "style": {
          "color": "hsl(210,10%,55%)",
          "fontSize": "24px"
        }
      },
      "categories": ${labels},
      "lineWidth": 1,
      "useHTML": true
    },
    "yAxis": {
      "gridLineWidth": 0,
      "endOnTick": false,
      "labels": {
          "enabled": false
        },
      "lineWidth": 0,
      "max": ${maxY},
      "title": {
        "text": null
      },
      "visible": true
    },
    "colors": ${colors},
    "series": [{
      "data": ${data},
      "colorByPoint": true
    }]
  }
}